{
  "development": {
    "username": "postgres",
    "password": "password",
    "database": "db_bank_development",
    "host": "127.0.0.1",
    "dialect": "postgres"
  },
  "test": {
    "username": "postgres",
    "password": "password",
    "database": "db_bank_test",
    "host": "127.0.0.1",
    "dialect": "postgres"
  },
  "production": {
    "username": "postgres",
    "password": "password",
    "database": "db_bank_production",
    "host": "127.0.0.1",
    "dialect": "postgres"
  }
}
